org/simplon/epec/archivage/domain/classificationNature/entity/ClassificationNatureTest.class
org/simplon/epec/archivage/domain/account/entity/AccountTest.class
org/simplon/epec/archivage/domain/client/entity/ClientTest.class
