/media/fadeil/60cf352d-c946-4eb0-ab01-76d3f1bc3a57/fadeil/projets-professionnels/archivage-epec-final/archivage/domain/src/test/java/org/simplon/epec/archivage/domain/client/entity/ClientTest.java
/media/fadeil/60cf352d-c946-4eb0-ab01-76d3f1bc3a57/fadeil/projets-professionnels/archivage-epec-final/archivage/domain/src/test/java/org/simplon/epec/archivage/domain/account/entity/AccountTest.java
/media/fadeil/60cf352d-c946-4eb0-ab01-76d3f1bc3a57/fadeil/projets-professionnels/archivage-epec-final/archivage/domain/src/test/java/org/simplon/epec/archivage/domain/classificationNature/entity/ClassificationNatureTest.java
