org/simplon/epec/archivage/domain/user/entity/Role.class
org/simplon/epec/archivage/domain/user/repository/UserRepository.class
org/simplon/epec/archivage/domain/document/repository/ContextRepository.class
org/simplon/epec/archivage/domain/document/entity/Context$ContextBuilder.class
org/simplon/epec/archivage/domain/classificationNature/entity/ClassificationNature.class
org/simplon/epec/archivage/domain/document/dto/DocumentDTO$DocumentDTOBuilder.class
org/simplon/epec/archivage/domain/contract/entity/Contract.class
org/simplon/epec/archivage/domain/history/entity/History.class
org/simplon/epec/archivage/domain/destructionList/repository/DestructionListRepository.class
org/simplon/epec/archivage/domain/account/entity/Account.class
org/simplon/epec/archivage/domain/document/entity/Context.class
org/simplon/epec/archivage/domain/client/repository/ClientRepository.class
org/simplon/epec/archivage/domain/destructionList/entity/DestructionList.class
org/simplon/epec/archivage/domain/contract/repository/ContractRepository.class
org/simplon/epec/archivage/domain/document/entity/DigitalDocument.class
org/simplon/epec/archivage/domain/event/entity/Event.class
org/simplon/epec/archivage/domain/event/repository/EventRepository.class
org/simplon/epec/archivage/domain/account/repository/AccountRepository.class
org/simplon/epec/archivage/domain/user/repository/RoleRepository.class
org/simplon/epec/archivage/domain/user/entity/User.class
org/simplon/epec/archivage/domain/document/dto/DocumentDTO.class
org/simplon/epec/archivage/domain/client/entity/Client.class
org/simplon/epec/archivage/domain/document/entity/DigitalDocument$DigitalDocumentBuilder.class
org/simplon/epec/archivage/domain/document/repository/DigitalDocumentRepository.class
org/simplon/epec/archivage/domain/history/repository/HistoryRepository.class
org/simplon/epec/archivage/domain/classificationNature/repository/ClassificationNatureRepository.class
